<?xml version="1.0" encoding="utf-8"?>
<!-- Generator: Adobe Illustrator 19.1.0, SVG Export Plug-In . SVG Version: 6.00 Build 0)  -->
<svg version="1.1" id="Layer_1" xmlns="http://www.w3.org/2000/svg" xmlns:xlink="http://www.w3.org/1999/xlink" x="0px" y="0px"
	 viewBox="-760.9 685.2 291.5 285.9" style="enable-background:new -760.9 685.2 291.5 285.9;" xml:space="preserve">
<g>
	<rect x="-793.9" y="807.5" transform="matrix(-0.7071 -0.7071 0.7071 -0.7071 -1631.0905 980.7459)" width="362.9" height="41.4"/>
	<rect x="-799.5" y="807.5" transform="matrix(0.7071 -0.7071 0.7071 0.7071 -766.6094 -194.4356)" width="362.9" height="41.4"/>
</g>
</svg>
